WARN   | 2017-12-06 18:42:27 | 148.183.254.223 | /dml/gnxdvthpm/imnwqjslc/gvnlmro/uyn | 2667
INFO   | 2018-12-06 18:42:29 | 158.167.157.188 | /ycmmdrvj | 2544
WARN   | 2019-12-06 18:42:32 | 206.68.20.151   | /rlfe/upqyh/wdwrfaiasp | 2478
DEBUG  | 2017-12-06 18:42:39 | 143.158.240.156 | /iaxdt/xojjiqc | 2447
ERROR  | 2017-12-06 18:42:45 | 243.185.193.212 | /wqnzup/vuyufwaj/uwy/ngjb | 2350
FATAL  | 2017-11-06 18:42:50 | 158.167.157.188 | /wkf | 2465
